<svg width="713" height="406" viewBox="0 0 713 406" fill="none" xmlns="http://www.w3.org/2000/svg">
<path opacity="0.61" d="M450.425 93.4199C451.265 88.9581 452.156 84.4962 453.048 80.0343C453.521 77.425 453.967 74.9984 454.465 72.2065C458.662 72.911 462.754 73.5633 466.82 74.3461C467.09 74.4477 467.378 74.4929 467.666 74.4789C467.954 74.4648 468.236 74.3918 468.495 74.2645C468.753 74.1372 468.982 73.9583 469.168 73.7389C469.354 73.5195 469.492 73.2643 469.575 72.9893C471.411 69.4407 473.457 65.9965 475.608 62.5522C475.797 62.3522 475.943 62.1159 476.036 61.8578C476.129 61.5997 476.169 61.3253 476.152 61.0515C476.134 60.7777 476.061 60.5103 475.936 60.2658C475.811 60.0213 475.637 59.8049 475.425 59.6298C472.801 56.5248 470.178 53.3154 467.266 50.0016L484.842 35.3113C487.465 38.5208 490.246 41.6258 492.843 44.8352C492.992 45.105 493.198 45.3404 493.445 45.5259C493.693 45.7114 493.977 45.843 494.279 45.9119C494.581 45.9809 494.894 45.9857 495.198 45.926C495.502 45.8664 495.79 45.7436 496.043 45.5658C499.572 44.0172 503.2 42.701 506.903 41.6258C508.608 41.13 509.002 40.4516 508.975 38.8599C508.975 34.8677 508.975 30.8756 508.975 26.7268H531.902C531.902 30.8234 531.902 34.8678 531.902 38.9122C531.902 40.5299 532.322 41.1301 533.975 41.5214C537.674 42.6172 541.301 43.9418 544.835 45.4875C545.089 45.663 545.378 45.7825 545.682 45.8381C545.987 45.8938 546.3 45.8842 546.6 45.8102C546.9 45.7361 547.181 45.5992 547.424 45.4086C547.667 45.218 547.867 44.978 548.009 44.7048C550.632 41.5475 553.255 38.4686 556.01 35.207L573.559 49.8711L564.562 60.5952C567.001 65.0571 569.283 69.3363 571.723 73.5111C571.985 73.9808 573.139 74.2157 573.821 74.1113C577.914 73.4851 582.006 72.7284 586.36 71.9717L590.348 94.4115C586.072 95.1682 581.927 95.8726 577.809 96.6815C577.127 96.812 576.13 97.4382 576.025 97.9862C575.212 102.735 574.556 107.51 573.795 112.546L585.915 119.539L574.451 139.291L562.253 132.324C558.318 135.455 554.515 138.43 550.763 141.535C550.558 141.807 550.42 142.124 550.361 142.46C550.301 142.795 550.323 143.14 550.422 143.466C551.786 147.51 553.282 151.502 554.803 155.677L533.267 163.505C531.929 159.878 530.486 156.33 529.358 152.677C529.303 152.234 529.152 151.808 528.916 151.428C528.68 151.048 528.365 150.723 527.992 150.475C527.618 150.228 527.195 150.063 526.752 149.992C526.309 149.922 525.856 149.948 525.423 150.067C521.711 150.315 517.986 150.315 514.274 150.067C514.024 150.007 513.763 149.998 513.51 150.042C513.256 150.087 513.014 150.183 512.799 150.326C512.585 150.468 512.402 150.653 512.263 150.869C512.124 151.085 512.032 151.327 511.992 151.581C510.628 155.495 509.159 159.409 507.638 163.479L486.075 155.651L490.902 142.396L478.756 132.22L466.453 139.265L454.963 119.513C458.767 117.321 462.335 115.233 465.955 113.224C466.203 113.129 466.43 112.986 466.622 112.803C466.814 112.619 466.967 112.4 467.072 112.156C467.177 111.913 467.232 111.652 467.234 111.387C467.236 111.122 467.184 110.86 467.083 110.615C466.243 106.936 465.561 103.205 465.089 99.4735C464.853 97.647 464.433 96.8642 462.466 96.525C458.479 96.0814 454.596 95.2204 450.609 94.5159L450.425 93.4199ZM520.623 66.2052C514.831 66.1183 509.143 67.7411 504.277 70.8684C499.412 73.9957 495.588 78.4873 493.288 83.7756C490.988 89.0639 490.316 94.9117 491.356 100.58C492.396 106.248 495.101 111.483 499.131 115.622C503.16 119.761 508.333 122.62 513.995 123.836C519.657 125.053 525.555 124.572 530.943 122.456C536.331 120.34 540.967 116.683 544.266 111.946C547.565 107.21 549.379 101.608 549.478 95.8466C549.57 88.1195 546.589 80.6692 541.184 75.1177C535.78 69.5662 528.39 66.3629 520.623 66.2052Z" fill="#189FA3" fill-opacity="0.5"/>
<path opacity="0.61" d="M648.21 159.704L653.235 175.409C650.315 176.377 647.5 177.215 644.79 178.236C644.447 178.394 644.147 178.631 643.914 178.926C643.681 179.222 643.521 179.568 643.448 179.937C643.212 182.712 643.291 185.486 643.08 188.261C643.022 188.498 643.012 188.745 643.051 188.986C643.09 189.227 643.176 189.458 643.306 189.666C643.436 189.873 643.607 190.052 643.807 190.193C644.008 190.334 644.235 190.434 644.475 190.486C647.105 191.454 649.736 192.606 652.577 193.758C650.472 198.993 648.473 203.835 646.395 208.913C643.527 207.762 640.818 206.584 638.056 205.615C637.692 205.524 637.312 205.52 636.947 205.602C636.581 205.683 636.24 205.849 635.951 206.086C633.741 208.416 631.663 210.903 629.348 213.546L634.057 222.498L619.535 230.194C618.088 227.576 616.773 224.959 615.326 222.341C615.136 222.047 614.88 221.8 614.58 221.618C614.279 221.437 613.94 221.326 613.59 221.294C610.249 221.687 606.908 222.289 603.462 222.812L601.278 232.68L585.231 229.251L587.309 219.383C584.336 217.446 581.495 215.536 578.575 213.756C578.265 213.661 577.937 213.641 577.617 213.695C577.297 213.75 576.995 213.878 576.734 214.07C574.366 215.797 572.077 217.63 569.604 219.54L559.476 206.636C561.896 204.751 564.106 202.971 566.395 201.27C566.616 201.168 566.814 201.021 566.975 200.839C567.137 200.657 567.258 200.444 567.333 200.212C567.407 199.981 567.432 199.737 567.406 199.495C567.381 199.254 567.305 199.02 567.184 198.81C566.161 196.287 565.283 193.709 564.553 191.088C564.534 190.844 564.465 190.606 564.35 190.39C564.234 190.174 564.075 189.984 563.883 189.831C563.69 189.679 563.468 189.568 563.231 189.505C562.993 189.442 562.745 189.428 562.501 189.465C559.634 189.465 556.793 189.465 554.188 189.465V172.975H564.553C565.869 169.886 567.184 166.797 568.526 163.63C568.71 163.159 568.21 162.19 567.763 161.745C565.711 159.756 563.527 157.898 561.265 155.856L572.261 143.685L579.838 150.412C583.047 148.789 586.178 147.27 589.256 145.595C589.624 145.386 589.782 144.391 589.729 143.815C589.414 140.988 588.966 138.162 588.545 135.099L604.83 132.848C605.251 135.753 605.671 138.423 605.961 141.119C606.119 142.637 606.75 143.266 608.355 143.449C610.765 143.795 613.147 144.311 615.484 144.993C615.733 145.119 616.005 145.193 616.283 145.209C616.562 145.225 616.84 145.184 617.102 145.089C617.364 144.993 617.603 144.844 617.804 144.652C618.006 144.46 618.165 144.229 618.273 143.972C619.667 141.538 621.219 139.235 622.85 136.67L636.766 145.36L631.505 153.919C633.583 156.72 635.609 159.494 637.74 162.138C638.039 162.323 638.373 162.446 638.721 162.5C639.069 162.553 639.424 162.537 639.765 162.452C642.554 161.641 645.343 160.725 648.21 159.704ZM604.014 203.547C608.18 203.484 612.234 202.192 615.661 199.835C619.089 197.477 621.736 194.161 623.267 190.305C624.798 186.45 625.145 182.229 624.263 178.177C623.381 174.125 621.31 170.425 618.313 167.545C615.315 164.665 611.526 162.736 607.425 162.001C603.325 161.266 599.097 161.759 595.278 163.417C591.459 165.075 588.221 167.823 585.973 171.314C583.725 174.805 582.57 178.881 582.653 183.026C582.743 188.575 585.043 193.862 589.049 197.725C593.054 201.587 598.437 203.71 604.014 203.626V203.547Z" fill="#189FA3" fill-opacity="0.5"/>
<path opacity="0.61" d="M651.34 71.1165L657.595 66.1379L665.537 76.3322C664.006 77.5702 662.656 78.9663 661.125 79.862C659.594 80.7576 659.023 81.9957 660.061 83.7079C660.411 84.3352 660.673 85.009 660.84 85.7099C662.189 89.8719 662.189 89.8718 666.602 90.0562C667.666 90.0562 668.73 90.0562 669.742 90.0562V102.937C667.354 102.937 665.226 102.937 663.124 102.937C661.904 102.937 661.307 103.227 661.047 104.439C660.826 105.424 660.513 106.385 660.113 107.31C658.503 111.393 658.478 111.393 661.8 114.37L664.395 116.662L655.882 126.382L649.912 121.113C647.576 122.351 645.24 123.51 642.982 124.827C642.757 125.047 642.582 125.314 642.47 125.61C642.357 125.906 642.311 126.223 642.333 126.54C642.541 128.752 642.904 130.939 643.216 133.336L630.575 135.206C630.238 132.862 629.978 130.649 629.511 128.515C629.404 128.157 629.217 127.828 628.965 127.554C628.713 127.28 628.403 127.068 628.058 126.935C625.722 126.329 623.36 125.934 620.738 125.407L616.507 132.256L605.632 125.433C606.8 123.484 607.864 121.614 609.032 119.823C609.22 119.652 609.367 119.44 609.46 119.202C609.554 118.965 609.592 118.708 609.572 118.453C609.552 118.198 609.474 117.951 609.344 117.732C609.215 117.512 609.037 117.326 608.825 117.188C607.92 116.27 607.095 115.274 606.359 114.212C604.36 111.393 604.386 111.393 601.038 112.5C599.714 112.974 598.442 113.395 596.729 113.922L592.706 101.62C594.809 100.909 596.755 100.172 598.78 99.5921C599.037 99.5581 599.284 99.4701 599.506 99.3338C599.728 99.1974 599.92 99.0156 600.069 98.8001C600.218 98.5845 600.321 98.3398 600.371 98.0816C600.422 97.8234 600.419 97.5573 600.363 97.3002C600.29 95.4361 600.359 93.569 600.571 91.7158C600.632 91.4768 600.645 91.2277 600.608 90.9836C600.571 90.7395 600.486 90.5056 600.357 90.296C600.229 90.0865 600.059 89.9059 599.859 89.765C599.659 89.6241 599.433 89.526 599.195 89.4767C597.196 88.7655 595.25 87.9226 593.147 87.0533L597.871 74.9887C600.052 75.858 602.076 76.7537 604.153 77.4386C604.487 77.5239 604.837 77.5303 605.174 77.4572C605.512 77.3842 605.828 77.2336 606.099 77.0171C607.812 75.1995 609.37 73.2502 611.109 71.2218L607.423 64.1096L618.662 57.9456L622.503 65.0315L631.224 63.7144L632.885 55.8119L645.396 58.446C644.955 60.6588 644.565 62.7398 644.098 64.8208C643.986 65.0662 643.926 65.333 643.922 65.6036C643.918 65.8743 643.97 66.1426 644.076 66.3913C644.181 66.6399 644.337 66.8632 644.533 67.0465C644.729 67.2298 644.961 67.369 645.214 67.455C647.265 68.456 649.211 69.7994 651.34 71.1165ZM615.002 95.4564C614.992 98.718 615.933 101.91 617.705 104.63C619.478 107.351 622.003 109.479 624.964 110.747C627.925 112.016 631.189 112.367 634.347 111.758C637.504 111.149 640.413 109.606 642.709 107.324C645.005 105.041 646.584 102.121 647.249 98.9297C647.914 95.7387 647.635 92.4193 646.447 89.3889C645.258 86.3585 643.213 83.7523 640.57 81.8978C637.926 80.0434 634.801 79.0235 631.588 78.9664C629.424 78.9098 627.271 79.2953 625.257 80.1C623.244 80.9047 621.41 82.1121 619.865 83.6505C618.32 85.1888 617.096 87.0266 616.265 89.0548C615.434 91.0829 615.013 93.2599 615.028 95.4564H615.002Z" fill="#189FA3" fill-opacity="0.5"/>
<path d="M528.82 361.922H670.642C682.241 361.922 691.643 352.48 691.643 340.833C691.643 329.186 682.241 319.744 670.642 319.744H528.82V361.922Z" fill="#D7E5F3"/>
<path d="M543.831 319.583H529.006V361.76H543.831V319.583Z" fill="#E4ECF2"/>
<path d="M521.594 364.551H670.828C683.94 364.551 694.609 353.839 694.609 340.671C694.609 327.504 683.941 316.791 670.828 316.791H521.594C520.059 316.791 518.814 318.041 518.814 319.582C518.814 321.124 520.059 322.373 521.594 322.373H670.828C680.875 322.373 689.05 330.582 689.05 340.671C689.05 350.76 680.875 358.969 670.828 358.969H521.594C520.059 358.969 518.814 360.218 518.814 361.76C518.814 363.301 520.059 364.551 521.594 364.551Z" fill="#189FA3"/>
<path d="M529.007 336.433H643.493C645.028 336.433 646.272 335.183 646.272 333.642C646.272 332.1 645.028 330.851 643.493 330.851H529.007V336.433Z" fill="#C5D7E6"/>
<path d="M529.006 350.492H613.095C614.63 350.492 615.874 349.242 615.874 347.701C615.874 346.159 614.63 344.91 613.095 344.91H529.006V350.492Z" fill="#C5D7E6"/>
<path d="M527.739 394.044H665.738C673.244 394.044 679.33 387.934 679.33 380.396C679.33 372.858 673.245 366.747 665.738 366.747H527.738V394.044H527.739Z" fill="#F0F5FA"/>
<path d="M542.563 366.747H527.739V394.044H542.563V366.747Z" fill="#E4ECF2"/>
<path d="M519.236 396.835H665.738C674.765 396.835 682.109 389.46 682.109 380.396C682.109 371.331 674.765 363.956 665.738 363.956H519.236C517.7 363.956 516.456 365.206 516.456 366.747C516.456 368.289 517.7 369.538 519.236 369.538H665.738C671.7 369.538 676.55 374.409 676.55 380.396C676.55 386.382 671.7 391.253 665.738 391.253H519.236C517.7 391.253 516.456 392.502 516.456 394.044C516.456 395.585 517.7 396.835 519.236 396.835Z" fill="#10555D"/>
<path d="M527.739 383.767H566.77C568.305 383.767 569.55 382.517 569.55 380.975C569.55 379.434 568.305 378.184 566.77 378.184H527.739V383.767Z" fill="#C5D7E6"/>
<path d="M671.323 249.621H560.558C552.219 249.621 545.459 256.409 545.459 264.782C545.459 273.155 552.219 279.943 560.558 279.943H671.323V249.621Z" fill="#D7E5F3"/>
<path d="M560.558 249.621H575.382C567.044 249.621 560.284 256.409 560.284 264.782C560.284 273.155 567.044 279.943 575.382 279.943H560.558C552.219 279.943 545.459 273.155 545.459 264.782C545.459 256.409 552.219 249.621 560.558 249.621Z" fill="#C6D4DF"/>
<path d="M560.558 283.521H680.769C682.304 283.521 683.549 282.271 683.549 280.73C683.549 279.188 682.304 277.938 680.769 277.938H560.558C553.765 277.938 548.239 272.389 548.239 265.569C548.239 258.748 553.765 253.198 560.558 253.198H680.769C682.304 253.198 683.549 251.949 683.549 250.407C683.549 248.866 682.304 247.616 680.769 247.616H560.558C550.7 247.616 542.68 255.669 542.68 265.568C542.68 275.467 550.7 283.521 560.558 283.521Z" fill="#10555D"/>
<path d="M668.35 282.99H503.093V316.765H668.35V282.99Z" fill="#1C7E83"/>
<path d="M542.054 282.99H491.588V316.765H542.054V282.99Z" fill="#127073"/>
<path d="M506.126 282.573H491.301V316.349H506.126V282.573Z" fill="#0B494B"/>
<path d="M602.064 305.043H639.87C642.94 305.043 645.429 302.544 645.429 299.461C645.429 296.378 642.94 293.879 639.87 293.879H602.064C598.994 293.879 596.505 296.378 596.505 299.461C596.505 302.544 598.994 305.043 602.064 305.043Z" fill="#F0F5FA"/>
<path d="M509.72 302.252H527.818C529.353 302.252 530.598 301.003 530.598 299.461C530.598 297.92 529.353 296.67 527.818 296.67H509.72C508.185 296.67 506.94 297.92 506.94 299.461C506.94 301.003 508.184 302.252 509.72 302.252Z" fill="#F0F5FA"/>
<path d="M634.026 261.765H570.599C569.064 261.765 567.82 263.015 567.82 264.557C567.82 266.098 569.064 267.348 570.599 267.348H634.026V261.765Z" fill="#C5D7E6"/>
<path d="M264.54 68.9709H110.161C103.532 68.9709 98.158 74.345 98.158 80.9743V184.014C98.158 190.643 103.532 196.018 110.161 196.018H264.54C271.169 196.018 276.544 190.643 276.544 184.014V80.9743C276.544 74.345 271.169 68.9709 264.54 68.9709Z" fill="#189FA3"/>
<path d="M265.877 77.0361H109.265V183.346H265.877V77.0361Z" fill="white"/>
<path d="M185.539 127.518H180.87V170.21H185.539V127.518Z" fill="#189FA3"/>
<path d="M193.659 134.499H188.99V170.21H193.659V134.499Z" fill="#189FA3"/>
<path d="M201.614 140.874H196.945V170.21H201.614V140.874Z" fill="#189FA3"/>
<path d="M209.735 134.499H205.065V170.21H209.735V134.499Z" fill="#189FA3"/>
<path d="M217.69 148.86H213.02V170.21H217.69V148.86Z" fill="#189FA3"/>
<path d="M225.81 134.499H221.141V170.21H225.81V134.499Z" fill="#189FA3"/>
<path d="M233.765 145.221H229.096V170.21H233.765V145.221Z" fill="#189FA3"/>
<path d="M241.885 140.41H237.216V170.21H241.885V140.41Z" fill="#189FA3"/>
<path d="M152.862 153.498H126.158V155.055H152.862V153.498Z" fill="#189FA3"/>
<path d="M152.862 157.814H126.158V159.37H152.862V157.814Z" fill="#189FA3"/>
<path d="M152.862 162.137H126.158V163.694H152.862V162.137Z" fill="#189FA3"/>
<path d="M152.862 166.461H126.158V168.017H152.862V166.461Z" fill="#189FA3"/>
<path d="M152.862 170.784H126.158V172.341H152.862V170.784Z" fill="#189FA3"/>
<path d="M153.412 98.8263C148.804 98.8127 144.38 100.63 141.113 103.878C137.845 107.127 136.002 111.54 135.988 116.148C135.975 120.755 137.792 125.179 141.04 128.447C144.289 131.714 148.702 133.558 153.31 133.571V127.518H153.239C150.966 127.518 148.744 126.844 146.854 125.581C144.964 124.319 143.491 122.524 142.621 120.424C141.751 118.324 141.524 116.013 141.967 113.784C142.411 111.554 143.505 109.507 145.112 107.899C146.72 106.292 148.768 105.198 150.997 104.754C153.226 104.311 155.537 104.538 157.637 105.408C159.737 106.278 161.532 107.751 162.795 109.641C164.057 111.531 164.731 113.753 164.731 116.026C164.733 116.576 164.691 117.125 164.606 117.669H170.714C170.765 117.18 170.788 116.69 170.784 116.199C170.785 113.917 170.337 111.658 169.464 109.549C168.591 107.441 167.312 105.526 165.698 103.912C164.085 102.299 162.169 101.019 160.061 100.147C157.953 99.2739 155.694 98.8252 153.412 98.8263Z" fill="#189FA3"/>
<path d="M317.475 84.5038H273.903C270.66 84.5038 268.031 87.1328 268.031 90.3759V132.911C268.031 136.154 270.66 138.783 273.903 138.783H317.475C320.718 138.783 323.347 136.154 323.347 132.911V90.3759C323.347 87.1328 320.718 84.5038 317.475 84.5038Z" fill="url(#paint0_linear)"/>
<path d="M316.885 127.102H273.557V95.116H274.343V126.316H316.885V127.102Z" fill="#189FA3"/>
<path d="M285.906 111.081H280.812V126.316H285.906V111.081Z" fill="#189FA3"/>
<path d="M296.298 104.439H291.204V126.316H296.298V104.439Z" fill="#189FA3"/>
<path d="M307.704 99.7068H302.61V126.316H307.704V99.7068Z" fill="#189FA3"/>
<path d="M246.272 6.05283H202.699C199.456 6.05283 196.827 8.68182 196.827 11.9249V54.4598C196.827 57.7028 199.456 60.3318 202.699 60.3318H246.272C249.515 60.3318 252.144 57.7028 252.144 54.4598V11.9249C252.144 8.68182 249.515 6.05283 246.272 6.05283Z" fill="url(#paint1_linear)"/>
<path d="M111.129 0H67.556C64.313 0 61.684 2.629 61.684 5.87204V48.407C61.684 51.65 64.313 54.279 67.556 54.279H111.129C114.372 54.279 117.001 51.65 117.001 48.407V5.87204C117.001 2.629 114.372 0 111.129 0Z" fill="url(#paint2_linear)"/>
<path d="M87.1765 83.3247H43.604C40.3609 83.3247 37.7319 85.9537 37.7319 89.1967V131.732C37.7319 134.975 40.3609 137.604 43.604 137.604H87.1765C90.4196 137.604 93.0486 134.975 93.0486 131.732V89.1967C93.0486 85.9537 90.4196 83.3247 87.1765 83.3247Z" fill="url(#paint3_linear)"/>
<path opacity="0.52" d="M58.1865 96.6881H42.4484V97.8413H58.1865V96.6881Z" fill="#189FA3"/>
<path opacity="0.52" d="M52.0569 98.9184H42.4484V100.003H52.0569V98.9184Z" fill="#189FA3"/>
<path opacity="0.52" d="M86.1562 98.9184H55.9293V100.009H86.1562V98.9184Z" fill="#189FA3"/>
<path opacity="0.52" d="M60.6577 101.163H47.4459V102.309H60.6577V101.163Z" fill="#189FA3"/>
<path opacity="0.52" d="M67.422 103.393H51.684V104.546H67.422V103.393Z" fill="#189FA3"/>
<path opacity="0.52" d="M81.6349 103.393H68.4438V104.677H81.6349V103.393Z" fill="#189FA3"/>
<path opacity="0.52" d="M63.8121 105.63H51.6565V106.714H63.8121V105.63Z" fill="#189FA3"/>
<path opacity="0.52" d="M90.0562 105.63H64.9788V106.832H90.0562V105.63Z" fill="#189FA3"/>
<path opacity="0.52" d="M58.1865 108.654H42.4484V109.808H58.1865V108.654Z" fill="#189FA3"/>
<path opacity="0.52" d="M52.0569 110.885H42.4484V111.969H52.0569V110.885Z" fill="#189FA3"/>
<path opacity="0.52" d="M86.1562 110.885H55.9293V111.976H86.1562V110.885Z" fill="#189FA3"/>
<path opacity="0.52" d="M60.6577 113.122H47.4459V114.268H60.6577V113.122Z" fill="#189FA3"/>
<path opacity="0.52" d="M67.422 115.359H51.684V116.512H67.422V115.359Z" fill="#189FA3"/>
<path opacity="0.52" d="M81.6349 115.359H68.4438V116.643H81.6349V115.359Z" fill="#189FA3"/>
<path opacity="0.52" d="M63.8121 117.596H51.6565V118.68H63.8121V117.596Z" fill="#189FA3"/>
<path opacity="0.52" d="M90.0562 117.596H64.9788V118.798H90.0562V117.596Z" fill="#189FA3"/>
<path d="M240.25 145.37L239.637 145.213L249.935 105.642H268.502V106.278H250.43L240.25 145.37Z" fill="#189FA3"/>
<path d="M196.882 44.7438H188.337L165.172 122.668L164.629 122.613L187.85 44.1071H196.882V44.7438Z" fill="#189FA3"/>
<path d="M152.131 104.4L131.724 40.3811H115.79V39.7443H132.188L132.258 39.9723L152.736 104.203L152.131 104.4Z" fill="#189FA3"/>
<path d="M127.5 152.5L106.225 111.248H89.6132V110.838H106.709L106.782 110.985L128.131 152.373L127.5 152.5Z" fill="#189FA3"/>
<path d="M170.714 117.881C170.351 122.218 168.371 126.259 165.168 129.205C161.965 132.151 157.771 133.785 153.42 133.783H153.318V127.738C156.069 127.721 158.723 126.716 160.796 124.907C162.869 123.098 164.224 120.605 164.614 117.881H170.714Z" fill="#189FA3"/>
<path d="M170.714 117.669C170.351 122.005 168.371 126.047 165.168 128.993C161.965 131.938 157.771 133.572 153.42 133.571H153.318V127.518C156.068 127.503 158.722 126.5 160.795 124.692C162.869 122.884 164.224 120.392 164.614 117.669H170.714Z" fill="url(#paint4_linear)"/>
<path d="M135.992 114.163C136.355 109.826 138.334 105.784 141.538 102.839C144.741 99.8931 149.036 98.652 153.388 98.6533V104.549C150.637 104.564 147.984 105.332 145.91 107.14C143.837 108.947 142.482 111.44 142.092 114.163H135.992Z" fill="#15B3B7"/>
<path d="M108.151 10.9467L73.2595 45.8381C72.911 46.1842 72.4397 46.3785 71.9485 46.3785C71.4573 46.3785 70.986 46.1842 70.6374 45.8381L70.4864 45.687C70.1413 45.3387 69.9482 44.868 69.9493 44.3777C69.9505 43.8874 70.1457 43.4176 70.4924 43.0709L105.384 8.17959L110.158 6.03627L108.151 10.9467Z" fill="#268184"/>
<path d="M108.095 11.0015L106.584 9.49103L72.9015 43.174L74.412 44.6844L108.095 11.0015Z" fill="url(#paint5_linear)"/>
<path opacity="0.65" d="M108.11 11.0075L105.382 8.17693L108.491 6.78127L110.158 6.03209L109.454 7.74494L108.11 11.0075Z" fill="url(#paint6_linear)"/>
<path d="M109.454 7.74496L108.491 6.78129L110.158 6.03211L109.454 7.74496Z" fill="#075052"/>
<path d="M74.3382 44.7584L73.2552 45.8414C72.9066 46.1876 72.4354 46.3819 71.9441 46.3819C71.4529 46.3819 70.9816 46.1876 70.6331 45.8414L70.482 45.6904C70.1369 45.3421 69.9439 44.8714 69.945 44.3811C69.9461 43.8908 70.1414 43.421 70.4881 43.0743L71.571 41.9913L74.3382 44.7584Z" fill="url(#paint7_linear)"/>
<path d="M374.066 396.494H469.127L452.308 336.012H388.252L374.066 396.494Z" fill="#189FA3"/>
<path d="M374.066 396.494H469.127L452.308 336.012H388.252L374.066 396.494Z" fill="url(#paint8_linear)"/>
<path d="M563.988 174.328V330.37C563.988 334.895 562.191 339.236 558.992 342.436C555.794 345.636 551.455 347.434 546.932 347.434H300.577C296.056 347.431 291.721 345.632 288.525 342.432C285.329 339.232 283.534 334.893 283.534 330.37V174.328C283.534 169.802 285.331 165.461 288.529 162.261C291.728 159.061 296.066 157.263 300.59 157.263H546.919C549.16 157.261 551.38 157.701 553.45 158.558C555.521 159.415 557.403 160.672 558.988 162.257C560.573 163.841 561.83 165.723 562.688 167.794C563.546 169.866 563.988 172.086 563.988 174.328Z" fill="#189FA3"/>
<path d="M563.988 174.328V311.17H283.534V174.328C283.534 169.801 285.33 165.459 288.529 162.257C291.727 159.054 296.065 157.254 300.59 157.25H546.919C551.444 157.257 555.782 159.058 558.981 162.259C562.181 165.461 563.981 169.8 563.988 174.328Z" fill="#473F47"/>
<path d="M559.77 177.636V306.651H287.776V177.636C287.787 175.472 288.225 173.332 289.063 171.338C289.902 169.344 291.124 167.535 292.662 166.014C294.2 164.493 296.022 163.29 298.024 162.474C300.027 161.658 302.17 161.244 304.333 161.257H543.214C545.376 161.244 547.52 161.658 549.522 162.474C551.525 163.29 553.347 164.493 554.884 166.014C556.422 167.535 557.645 169.344 558.483 171.338C559.322 173.332 559.759 175.472 559.77 177.636Z" fill="white"/>
<path opacity="0.18" d="M559.77 177.636V306.651H287.776V177.636C287.787 175.472 288.225 173.332 289.063 171.338C289.902 169.344 291.124 167.535 292.662 166.014C294.2 164.493 296.022 163.29 298.024 162.474C300.027 161.658 302.17 161.244 304.333 161.257H543.214C545.376 161.244 547.52 161.658 549.522 162.474C551.525 163.29 553.347 164.493 554.884 166.014C556.422 167.535 557.645 169.344 558.483 171.338C559.322 173.332 559.759 175.472 559.77 177.636Z" fill="#189FA3"/>
<path d="M396.04 180.799H307.504C305.687 180.799 304.214 182.376 304.214 184.321V184.352C304.214 186.297 305.687 187.874 307.504 187.874H396.04C397.857 187.874 399.33 186.297 399.33 184.352V184.321C399.33 182.376 397.857 180.799 396.04 180.799Z" fill="#189FA3" fill-opacity="0.3"/>
<path d="M397.585 241.327H308.317C306.485 241.327 305 242.904 305 244.849V244.88C305 246.825 306.485 248.402 308.317 248.402H397.585C399.417 248.402 400.902 246.825 400.902 244.88V244.849C400.902 242.904 399.417 241.327 397.585 241.327Z" fill="#189FA3" fill-opacity="0.3"/>
<path d="M509.968 180.799H419.968C418.121 180.799 416.624 182.376 416.624 184.321V184.352C416.624 186.297 418.121 187.874 419.968 187.874H509.968C511.815 187.874 513.312 186.297 513.312 184.352V184.321C513.312 182.376 511.815 180.799 509.968 180.799Z" fill="#189FA3" fill-opacity="0.3"/>
<path d="M510.754 241.327H420.754C418.907 241.327 417.41 242.904 417.41 244.849V244.88C417.41 246.825 418.907 248.402 420.754 248.402H510.754C512.601 248.402 514.098 246.825 514.098 244.88V244.849C514.098 242.904 512.601 241.327 510.754 241.327Z" fill="#189FA3" fill-opacity="0.3"/>
<path d="M453.373 195.735H307.555C305.71 195.735 304.214 197.311 304.214 199.257V199.287C304.214 201.232 305.71 202.809 307.555 202.809H453.373C455.218 202.809 456.714 201.232 456.714 199.287V199.257C456.714 197.311 455.218 195.735 453.373 195.735Z" fill="#189FA3" fill-opacity="0.3"/>
<path d="M454.159 256.263H308.341C306.496 256.263 305 257.84 305 259.785V259.815C305 261.761 306.496 263.338 308.341 263.338H454.159C456.004 263.338 457.5 261.761 457.5 259.815V259.785C457.5 257.84 456.004 256.263 454.159 256.263Z" fill="#189FA3" fill-opacity="0.3"/>
<path d="M396.04 210.67H307.504C305.687 210.67 304.214 212.247 304.214 214.192V214.223C304.214 216.168 305.687 217.745 307.504 217.745H396.04C397.857 217.745 399.33 216.168 399.33 214.223V214.192C399.33 212.247 397.857 210.67 396.04 210.67Z" fill="#189FA3" fill-opacity="0.3"/>
<path d="M397.585 271.198H308.317C306.485 271.198 305 272.775 305 274.721V274.751C305 276.696 306.485 278.273 308.317 278.273H397.585C399.417 278.273 400.902 276.696 400.902 274.751V274.721C400.902 272.775 399.417 271.198 397.585 271.198Z" fill="#189FA3" fill-opacity="0.3"/>
<path d="M509.968 210.67H419.968C418.121 210.67 416.624 212.247 416.624 214.192V214.223C416.624 216.168 418.121 217.745 419.968 217.745H509.968C511.815 217.745 513.312 216.168 513.312 214.223V214.192C513.312 212.247 511.815 210.67 509.968 210.67Z" fill="#189FA3" fill-opacity="0.3"/>
<path d="M510.754 271.198H420.754C418.907 271.198 417.41 272.775 417.41 274.721V274.751C417.41 276.696 418.907 278.273 420.754 278.273H510.754C512.601 278.273 514.098 276.696 514.098 274.751V274.721C514.098 272.775 512.601 271.198 510.754 271.198Z" fill="#189FA3" fill-opacity="0.3"/>
<path d="M485.013 161.147L437.848 306.572H466.933L508.595 161.147H485.013Z" fill="white" fill-opacity="0.35"/>
<path d="M514.884 161.147L477.938 306.572H490.516L526.282 161.147H514.884Z" fill="white" fill-opacity="0.35"/>
<path d="M378.831 266.082C379.056 270.028 380.336 273.469 383.783 274.617C384.073 274.714 384.369 274.794 384.669 274.855C390.999 276.114 399.313 271.315 405.108 267.132C407.517 265.395 409.828 263.526 412.029 261.535V219.352L381.208 250.734C381.208 250.734 378.395 259.171 378.831 266.082Z" fill="#189FA3"/>
<path d="M405.233 266.855C405.233 268.82 404.983 270.828 404.983 272.793C404.983 283.652 407.484 294.846 404.261 305.482C403.538 307.866 402.524 310.403 403.358 312.744C404.29 314.705 405.899 316.26 407.887 317.122C417.42 322.349 428.453 323.952 439.207 325.485C447.308 326.615 458.786 329.026 466.276 324.649C469.458 322.795 470.541 319.324 471.556 315.867C474.793 304.855 475.724 293.02 476.6 281.617C476.725 280.112 476.822 278.606 476.905 277.101C477.535 266.711 477.748 256.312 477.545 245.903C477.392 238.362 476.808 230.207 471.889 224.506C465.345 216.923 452.714 211.96 443.126 210.134C440.015 209.492 436.826 209.314 433.663 209.604C429.183 210.325 424.856 211.801 420.866 213.967C416.1 216.323 411.862 218.331 409.513 223.056C406.945 228.51 405.158 234.302 404.205 240.258C403.328 245.848 403.221 251.533 403.886 257.153C404.177 259.941 404.9 262.645 405.15 265.377C405.15 265.865 405.22 266.367 405.233 266.855Z" fill="#189FA3"/>
<path opacity="0.1" d="M447.404 329.674C450.589 330.605 457.931 327.729 460.369 327.298C461.778 327.048 463.187 326.339 464.596 325.978C471.867 324.199 472.727 304.065 473.446 298.646C475.32 284.32 478.223 269.466 478.392 255.14C478.392 249.582 478.307 243.955 476.461 238.73C474.615 233.505 470.825 228.67 465.568 226.794C456.282 223.487 453.52 252.431 452.252 258.433L445.276 291.17C444.3 295.192 443.663 299.287 443.374 303.412C443.12 309.151 444.98 313.139 446.474 318.322C447.32 321.17 445.065 326.659 446.136 328.743C446.273 328.975 446.456 329.176 446.674 329.336C446.892 329.496 447.14 329.611 447.404 329.674Z" fill="#020202"/>
<path d="M353.627 254.925C357.663 260.768 362.661 265.852 368.398 269.95C372.53 272.821 377.308 274.572 382.285 275.039C382.938 275.098 383.596 275.025 384.222 274.824C385.284 274.495 386.217 273.833 386.89 272.932C388.964 270.397 390.211 267.265 390.456 263.972C390.793 255.37 381.653 250.352 381.653 250.352C381.653 250.352 360.844 243.585 358.373 244.617C356.969 245.22 355.733 248.202 354.835 250.796C354.105 253.033 353.627 254.925 353.627 254.925Z" fill="#189FA3"/>
<path opacity="0.1" d="M353.627 254.868C357.611 260.664 362.545 265.707 368.208 269.773C372.287 272.621 377.004 274.359 381.916 274.823C382.561 274.881 383.211 274.809 383.829 274.609C384.115 274.709 384.407 274.789 384.702 274.851C390.939 276.131 399.131 271.253 404.841 267V266.858L402.901 254.057C399.163 258.018 394.818 261.324 390.038 263.842C386.647 265.714 382.768 266.446 378.95 265.933C377.924 265.776 376.925 265.47 375.984 265.023C368.354 261.25 361.239 256.468 354.819 250.8C354.098 252.99 353.627 254.868 353.627 254.868Z" fill="#020202"/>
<path d="M490.427 268.682C493.195 276.011 495.507 283.783 494.414 291.514C493.029 300.893 486.841 308.734 480.847 316.063C476.126 316.77 469.938 316.673 468.277 312.212C467.852 310.774 467.744 309.262 467.959 307.779L468.623 298.081C468.928 293.758 469.205 289.325 467.959 285.183C466.574 280.458 463.28 276.551 460.691 272.354C456.472 265.511 453.97 257.749 453.395 249.73C452.855 242.221 458.531 217.866 469.62 225.208C474.216 228.215 478.286 240.711 480.695 245.726C484.322 253.217 487.566 260.869 490.427 268.682Z" fill="#189FA3"/>
<path d="M465.68 323.375C465.425 323.744 465.294 324.192 465.309 324.649C465.309 325.097 465.825 325.517 466.209 325.307C467.282 328.822 465.044 332.504 465.044 336.201C465.028 336.532 465.069 336.864 465.163 337.181C465.323 337.588 465.595 337.935 465.944 338.175C466.533 338.567 467.205 338.797 467.899 338.843C468.594 338.89 469.288 338.752 469.918 338.441C471.172 337.815 472.293 336.929 473.217 335.837C475.229 333.884 476.761 331.443 477.681 328.724C478.015 327.46 478.237 326.166 478.343 324.859L479.416 315.211C472.541 312.845 468.845 317.634 465.68 323.375Z" fill="#FDB9A9"/>
<path d="M356.842 243.735H356.632C355.686 243.029 354.847 242.186 354.141 241.233C351.992 238.474 349.357 236.146 346.37 234.367C345.14 233.635 343.37 233.055 342.41 234.154C342.08 234.52 341.93 235.039 341.57 235.374C340.73 236.168 339.379 235.649 338.419 235.039C337.459 234.428 336.229 233.757 335.239 234.367C334.944 234.601 334.709 234.903 334.552 235.248C334.395 235.593 334.322 235.971 334.339 236.351C334.461 238.12 335.018 239.831 335.959 241.324C337.394 244.25 339.038 247.065 340.88 249.746C341.331 250.555 341.992 251.222 342.791 251.674C343.59 252.126 344.496 252.346 345.41 252.309C348.265 252.307 351.073 253.042 353.571 254.445C354.044 254.904 354.638 255.211 355.281 255.329C357.112 255.512 357.742 249.776 358.042 248.464C358.192 247.823 359.002 245.687 358.702 245.047C358.402 244.406 357.442 244.07 356.842 243.735Z" fill="#FFBBAB"/>
<path d="M237.518 175.436L236.611 176.44L367.705 257.315L368.673 255.125L237.518 175.436Z" fill="#210303"/>
<path d="M334.424 236.915C334.219 235.928 334.377 234.898 334.867 234.024C335.209 233.637 335.631 233.335 336.102 233.14C336.573 232.945 337.081 232.862 337.588 232.897C338.076 232.855 338.567 232.907 339.037 233.049C340.101 233.445 340.722 234.541 341.402 235.485C341.618 235.777 341.866 236.043 342.141 236.276C342.518 236.533 342.925 236.737 343.354 236.885C343.959 237.077 344.536 237.354 345.069 237.707C345.889 238.349 346.573 239.157 347.079 240.081C347.577 240.817 348.003 241.602 348.351 242.425C348.737 243.494 348.908 244.633 348.853 245.773C348.888 246.159 348.794 246.545 348.587 246.869C348.311 247.177 347.929 247.362 347.523 247.386C345.896 247.52 344.273 247.091 342.91 246.168C341.52 245.316 340.278 244.19 338.977 243.125C337.821 242.499 336.813 241.618 336.026 240.544C335.239 239.471 334.692 238.232 334.424 236.915Z" fill="#FFBBAB"/>
<path d="M468.603 194.919C464.429 199.415 453.003 202.737 453.003 202.737C452.347 197.748 455.225 196.332 455.225 196.332C457.974 196.92 462.463 190.543 461.535 188.309C460.382 185.463 458.218 186.232 456.67 187.144C455.399 185.874 454.404 184.356 453.748 182.684C453.091 181.012 452.787 179.222 452.855 177.427C452.947 175.318 457.274 169.856 450.679 166.459C444.085 163.062 434.02 164.413 434.02 164.413C434.02 164.413 432.313 157.643 440.733 155.555C447.618 153.863 457.175 156.522 463.887 158.148C467.544 158.789 470.99 160.313 473.926 162.586C478.097 166.27 479.42 172.225 479.621 177.792C479.822 183.359 479.113 188.998 480.212 194.458C480.809 197.487 481.978 200.468 481.685 203.537C481.392 206.606 478.887 209.871 475.838 209.413C474.654 209.268 473.42 208.582 472.323 209.082C471.227 209.582 470.824 211.235 469.781 212.109C467.935 213.551 465.357 211.565 463.103 210.754C460.154 209.758 456.576 211.021 454.02 209.272C452.958 208.541 452.15 207.373 450.953 207.059C449.329 206.693 447.778 208.038 446.109 208.033C443.254 208.034 441.559 204.303 438.753 204.042C437.476 204.093 436.218 204.362 435.033 204.837C433.974 205.038 432.885 205.021 431.833 204.788C430.781 204.555 429.787 204.11 428.912 203.481C428.037 202.852 427.299 202.052 426.742 201.129C426.186 200.206 425.823 199.18 425.675 198.112C425.446 198.247 425.19 198.331 424.926 198.36C424.662 198.389 424.394 198.362 424.141 198.281C423.888 198.199 423.655 198.065 423.457 197.887C423.259 197.71 423.101 197.492 422.993 197.249C422.593 196.242 422.508 195.137 422.748 194.08C423.877 184.887 423.076 170.198 431.013 163.744C437.006 158.854 445.693 158.535 453.08 160.777C459.017 162.591 472.272 167.624 474.459 173.602C476.647 179.58 472.774 190.457 468.603 194.919Z" fill="#F16719"/>
<path d="M441.619 206.664C432 206.284 427.303 196.676 427.596 184.91C427.637 183.629 427.747 182.324 427.908 181.008C428.36 177.219 429.26 173.496 430.589 169.919C436.939 152.602 461.504 162.863 461.504 162.863C480.24 174.245 458.331 207.331 441.619 206.664Z" fill="#FDB9A9"/>
<path d="M454.073 194.838C451.782 199.899 443.717 208.341 436.106 205.203C436.83 206.999 437.029 208.963 436.68 210.868C436.331 212.773 435.448 214.539 434.134 215.962C434.134 215.962 435.908 222.857 454.452 215.268C454.452 215.268 449.812 214.314 452.278 204.834C453.05 201.567 454.608 198.538 456.817 196.01C456.582 196.215 456.294 196.349 455.987 196.398C455.679 196.446 455.364 196.407 455.077 196.285C454.791 196.163 454.545 195.962 454.367 195.706C454.189 195.45 454.087 195.149 454.073 194.838Z" fill="#EEAFA1"/>
<path d="M440.45 159.894C441.859 168.815 443.679 181.459 451.503 187.211C452.562 188.127 453.864 188.716 455.252 188.906C456.567 188.801 456.56 187.765 457.675 186.984C458.041 186.692 458.488 186.523 458.955 186.499C459.422 186.476 459.885 186.599 460.278 186.852C460.594 187.161 460.828 187.543 460.96 187.964C461.092 188.385 461.117 188.832 461.034 189.266C460.908 190.322 460.51 191.328 459.878 192.184C459.246 193.041 458.402 193.717 457.429 194.148C456.554 194.43 455.705 194.79 454.893 195.223C453.955 195.948 453.316 196.992 453.097 198.157C452.762 199.718 452.878 201.342 453.434 202.839C453.99 204.335 454.961 205.642 456.234 206.606C456.389 206.743 456.582 206.83 456.787 206.857C457.036 206.84 457.272 206.74 457.456 206.572L461.612 203.593C463.595 202.293 465.423 200.77 467.06 199.054C469.103 196.711 470.406 193.815 470.803 190.732C470.975 189.334 470.606 187.853 470.786 186.523C471.237 184.783 471.913 183.11 472.799 181.545C473.897 179.527 474.61 177.321 474.9 175.042C475.137 170.53 471.873 166.524 468.102 164.058C462.14 160.137 454.865 158.876 447.785 157.94C446.387 157.672 444.948 157.688 443.556 157.989C442.293 158.351 441.619 159.621 440.45 159.894Z" fill="#F16719"/>
<path d="M428.835 173.192C428.833 173.458 428.874 173.722 428.956 173.975C429.136 174.309 429.425 174.57 429.774 174.716C430.124 174.863 430.513 174.885 430.877 174.779C431.602 174.536 432.259 174.124 432.794 173.578C432.713 173.878 432.736 174.195 432.859 174.48C432.981 174.765 433.196 175 433.469 175.147C434.031 175.424 434.66 175.536 435.283 175.47C436.701 175.41 438.097 175.095 439.403 174.54C439.369 175.165 439.523 175.786 439.845 176.323C440.167 176.86 440.643 177.288 441.211 177.552C441.779 177.816 442.413 177.903 443.031 177.803C443.649 177.703 444.223 177.42 444.678 176.991L445.315 178.738C446.137 178.438 446.96 178.94 447.86 178.951C448.743 178.893 449.577 178.523 450.213 177.906C450.848 177.29 451.243 176.468 451.328 175.587C451.454 173.826 451.216 172.058 450.63 170.393C449.884 167.506 449.425 164.554 449.259 161.577C449.281 160.619 449.096 159.668 448.716 158.789C448.2 157.961 447.429 157.321 446.519 156.967C442.271 155.126 436.828 157.446 433.645 160.394C430.468 163.891 428.748 168.469 428.835 173.192Z" fill="#F16719"/>
<rect x="283.776" y="306.712" width="279.845" height="4.71649" fill="#473F47"/>
<path d="M283.776 311.429H564.407V328.374C564.407 339.42 555.453 348.374 544.407 348.374H303.776C292.73 348.374 283.776 339.42 283.776 328.374V311.429Z" fill="#169094"/>
<path d="M144.553 379.599H148.027V347.464H144.553V379.599Z" fill="#4C506D"/>
<path d="M129.381 383.451H167.97V378.947H129.381V383.451Z" fill="#4C506D"/>
<path d="M129.381 383.451H167.97V378.947H129.381V383.451Z" fill="#2F3554"/>
<path d="M133.768 347.472H155.338C158.576 347.472 161.202 344.847 161.202 341.608C161.202 338.369 158.576 335.744 155.338 335.744H133.768C130.529 335.744 127.903 338.369 127.903 341.608C127.903 344.847 130.529 347.472 133.768 347.472Z" fill="#4C506D"/>
<path d="M140.725 347.472H162.295C165.533 347.472 168.159 344.847 168.159 341.608C168.159 338.369 165.533 335.744 162.295 335.744H140.725C137.486 335.744 134.86 338.369 134.86 341.608C134.86 344.847 137.486 347.472 140.725 347.472Z" fill="#2F3554"/>
<path d="M118.447 292.391V303.561C118.447 305.542 119.234 307.441 120.634 308.842C122.035 310.242 123.934 311.029 125.915 311.029H137.077C139.058 311.029 140.959 310.243 142.36 308.842C143.762 307.442 144.551 305.543 144.553 303.561V292.391C144.553 290.409 143.765 288.507 142.363 287.105C140.961 285.703 139.06 284.916 137.077 284.916H125.915C125.581 284.915 125.247 284.939 124.916 284.986C123.124 285.228 121.481 286.112 120.291 287.474C119.101 288.836 118.446 290.583 118.447 292.391Z" fill="#4C506D"/>
<path d="M121.544 303.624C121.694 304.805 122.126 305.931 122.802 306.91C124.822 309.677 128.753 310.015 132.172 310.102C134.719 310.165 143.602 312.075 142.965 307.806C142.627 305.566 141.283 303.184 140.607 301.022C139.931 298.861 138.5 296.07 138.5 293.885C138.027 291.81 137.391 289.775 136.598 287.8C136.146 286.769 135.565 285.8 134.868 284.916H125.907C125.594 284.901 125.28 284.938 124.979 285.026C125.341 288.028 123.352 290.151 122.26 292.776C121.277 295.135 121.293 297.721 121.324 300.244C121.319 301.375 121.392 302.504 121.544 303.624Z" fill="#2F3554"/>
<path d="M136.959 304.08C137.555 305.362 138.021 306.7 138.351 308.074C138.65 309.756 139.137 311.399 139.459 313.089C140.049 316.486 140.331 319.93 140.3 323.379C140.3 324.739 140.3 326.279 141.275 327.223C141.992 327.793 142.856 328.147 143.767 328.244C145.536 328.598 147.131 329.298 148.892 329.596C150.813 329.873 152.753 329.989 154.693 329.942C160.416 329.942 171.068 329.306 170.714 321.295C170.329 312.224 169.621 303.404 168.356 294.364C167.923 291.338 167.837 287.848 166.917 284.931C166.131 282.487 163.293 282.463 160.927 282.715L160.479 282.762C160.023 282.809 159.567 282.864 159.119 282.927C155.967 283.25 152.796 283.342 149.631 283.202C146.062 283.092 140.363 282.738 136.857 286.095C136.613 286.326 136.385 286.573 136.173 286.834C132.644 291.094 134.546 297.996 136.959 304.08Z" fill="white"/>
<path d="M183.11 301.942C183.417 303.85 183.575 305.779 183.582 307.712C183.635 308.388 183.49 309.066 183.165 309.661C182.568 310.573 181.318 310.754 180.225 310.731C176.781 310.695 173.486 309.316 171.044 306.887C168.766 304.624 166.683 302.173 164.818 299.56C164.3 298.951 163.909 298.244 163.667 297.481C163.425 296.719 163.338 295.916 163.411 295.119C163.411 292.926 163.497 290.725 163.694 288.539C163.741 288.028 167.271 288.429 167.624 288.539C168.942 288.917 170.2 289.481 171.358 290.214C171.492 288.775 171.083 287.132 170.965 285.67C170.886 285.238 170.938 284.792 171.115 284.389C171.515 283.674 172.514 283.603 173.339 283.681C175.108 283.807 177.065 284.106 178.166 285.489C178.631 286.144 178.977 286.876 179.188 287.651C180.776 292.313 182.356 297.076 183.11 301.942Z" fill="white"/>
<path d="M177.875 303.782C178.057 304.497 177.982 305.254 177.663 305.92C176.876 307.115 175.069 306.706 173.787 306.124C172.071 305.3 170.436 304.316 168.906 303.184C168.778 303.059 168.627 302.961 168.461 302.896C168.295 302.832 168.117 302.801 167.939 302.807C167.679 302.891 167.453 303.056 167.294 303.278C164.902 305.911 161.983 308.011 158.726 309.441C157.617 309.929 156.155 310.227 155.354 309.355C154.552 308.482 155.188 306.847 155.896 305.755L164.323 292.737C164.419 292.547 164.577 292.395 164.771 292.305C165.093 292.195 165.415 292.438 165.675 292.658C166.835 293.661 168.122 294.507 169.503 295.174C169.988 295.476 170.571 295.58 171.13 295.465C171.916 295.198 172.184 294.238 172.286 293.421C172.452 292.06 172.489 290.686 172.396 289.318C172.306 288.753 172.343 288.176 172.506 287.628C172.621 287.389 172.784 287.177 172.986 287.005C173.188 286.834 173.424 286.707 173.679 286.633C173.933 286.559 174.2 286.539 174.463 286.575C174.725 286.611 174.977 286.702 175.202 286.841C176.24 287.628 176.075 290.599 176.248 291.865L177.875 303.782Z" fill="#D8DAE1"/>
<path d="M148.743 303.326C149.506 304.719 150.534 305.95 151.769 306.949C153.145 308.019 156.328 312.224 158.301 310.943C157.434 311.703 156.412 312.266 155.306 312.594C158.356 314.74 162.2 315.313 165.863 315.997C166.817 316.117 167.737 316.427 168.568 316.909C168.981 317.153 169.317 317.51 169.537 317.937C169.757 318.364 169.851 318.844 169.81 319.322C169.542 320.973 167.451 321.468 165.769 321.571C161.658 321.822 157.523 321.909 153.435 322.412C149.953 322.836 146.204 323.748 144.058 326.523C143.906 326.764 143.691 326.96 143.437 327.089C143.22 327.142 142.991 327.117 142.79 327.02C142.589 326.922 142.428 326.758 142.336 326.554C142.162 326.14 142.084 325.691 142.108 325.242C142.043 321.827 141.514 318.437 140.536 315.164C140.143 313.843 140.096 312.499 139.71 311.234C139.239 309.661 138.382 308.191 137.847 306.643C136.78 303.516 136.06 300.282 135.701 296.998C135.45 294.694 135.615 291.912 137.596 290.709C138.345 290.325 139.189 290.166 140.026 290.253C140.864 290.339 141.658 290.667 142.312 291.196C143.601 292.269 144.596 293.651 145.205 295.213C146.392 297.862 147.288 300.826 148.743 303.326Z" fill="#D8DAE1"/>
<path d="M157.233 288.964C157.114 289.11 157.026 289.279 156.973 289.459C156.962 289.657 157.003 289.855 157.091 290.033C158.9 294.912 160.35 299.917 161.43 305.008C162.484 309.465 163.545 313.953 163.788 318.536C163.824 318.868 163.8 319.204 163.718 319.527C163.372 320.659 161.894 321.012 161.249 322.003L159.103 319.558C158.966 319.416 158.854 319.251 158.773 319.071C158.714 318.812 158.714 318.543 158.773 318.285C159.504 313.387 158.702 308.396 157.555 303.585C156.572 299.45 155.322 295.308 155.401 291.055C155.442 290.801 155.429 290.542 155.363 290.294C155.296 290.046 155.178 289.815 155.016 289.616C154.796 289.47 154.558 289.354 154.308 289.27C154.018 289.135 153.758 288.942 153.545 288.703C153.332 288.464 153.169 288.184 153.068 287.88C152.966 287.577 152.928 287.255 152.955 286.936C152.981 286.617 153.073 286.307 153.223 286.024C153.679 286.02 154.126 285.907 154.528 285.694C154.934 285.48 155.402 285.418 155.849 285.521C156.816 285.89 157.798 288.028 157.233 288.964Z" fill="#189FA3"/>
<path d="M136.841 286.118C140.347 282.762 146.046 283.115 149.615 283.225C152.78 283.366 155.951 283.274 159.103 282.95C159.551 282.887 160.007 282.832 160.463 282.785C158.584 281.999 155.912 282.534 153.899 282.597C150.855 282.696 147.812 282.882 144.773 283.155C141.888 283.414 138.712 283.909 136.841 286.118Z" fill="white"/>
<path d="M147.642 273.565C148.22 275.071 149.345 276.304 150.791 277.019C152.237 277.734 153.9 277.879 155.448 277.424C155.448 277.424 153.97 281.936 155.825 284.664C155.825 284.664 154.591 287.808 146.298 283.163C146.298 283.163 148.538 282.974 147.925 278.375C147.745 276.791 147.187 275.273 146.298 273.95C146.397 274.055 146.523 274.131 146.662 274.17C146.801 274.208 146.949 274.207 147.088 274.167C147.226 274.128 147.352 274.05 147.45 273.944C147.547 273.838 147.614 273.706 147.642 273.565Z" fill="#D68369"/>
<path d="M151.714 279.366C156.092 280.655 159.661 277.047 161.28 271.717C161.453 271.136 161.603 270.53 161.729 269.909C162.098 268.137 162.259 266.327 162.208 264.517C161.972 255.775 149.403 256.656 149.403 256.656C139.231 258.936 144.097 277.133 151.714 279.366Z" fill="#EC9C7D"/>
<path d="M178.928 333.755L178.669 333.488C179.698 334.643 180.39 335.476 180.602 335.736C180.084 335.052 179.518 334.392 178.928 333.755Z" fill="#DC9BD5"/>
<path d="M158.16 255.233C159.763 255.629 161.162 256.603 162.09 257.969C162.57 258.684 162.876 259.494 163.458 260.162C164.244 261.113 165.407 261.797 165.816 262.96C163.832 263.279 161.799 262.91 160.054 261.915C159.912 262.153 159.711 262.351 159.47 262.489C159.229 262.626 158.956 262.699 158.678 262.701C158.122 262.693 157.572 262.59 157.051 262.394C156.765 262.275 156.45 262.248 156.147 262.316C155.92 262.417 155.717 262.564 155.55 262.748C155.035 263.187 154.418 263.489 153.756 263.626C153.094 263.764 152.408 263.732 151.761 263.534C150.975 263.298 150.189 262.819 149.458 263.062C148.727 263.306 148.247 264.375 148.247 265.279C148.358 266.177 148.334 267.085 148.176 267.975C147.626 268.07 147.516 267.189 147.029 266.859C146.541 266.529 146.078 266.946 145.826 267.362C145.62 267.721 145.531 268.135 145.571 268.547C145.612 268.958 145.781 269.347 146.054 269.658C146.222 269.799 146.352 269.98 146.431 270.184C146.463 270.392 146.428 270.604 146.329 270.79L145.48 272.936C144.308 270.247 142.907 267.664 141.29 265.216C140.614 264.234 139.828 263.11 140.135 261.954C140.441 260.799 141.707 259.95 141.424 258.81C141.35 258.601 141.287 258.388 141.235 258.173C141.21 257.851 141.278 257.529 141.432 257.245C142.021 256.092 142.861 255.086 143.891 254.301C144.921 253.516 146.114 252.972 147.382 252.71C149.923 252.211 152.539 252.235 155.07 252.781C157.617 253.221 160.133 253.857 162.711 254.054C162.923 254.054 163.167 254.109 163.261 254.298C163.289 254.39 163.289 254.488 163.261 254.581C163.159 255.131 162.64 255.5 162.224 255.886C161.807 256.271 161.438 256.892 161.744 257.371" fill="#2F3554"/>
<path d="M148.672 323.622C148.672 323.622 153.994 336.923 158.27 338.322C162.546 339.721 178.362 344.54 178.362 344.54L200.372 385.974L209.019 380.653L189.603 332.183L172.372 323.355C172.372 323.355 167.962 323.481 148.672 323.622Z" fill="#2F3554"/>
<path d="M141.29 326.177C141.29 326.177 140.292 338.306 144.568 339.706C148.845 341.105 164.653 345.931 164.653 345.931L188.172 390.879L197.943 386.949L175.933 333.582L158.71 324.754C158.71 324.754 148.703 321.107 141.29 326.177Z" fill="#4C506D"/>
<path d="M212.557 382.193C213.685 382.223 214.809 382.336 215.921 382.531C216.962 382.641 217.951 383.041 218.775 383.687C219.242 384.094 219.555 384.649 219.663 385.259C219.71 385.565 219.687 385.877 219.596 386.172C219.504 386.468 219.347 386.739 219.136 386.965C218.738 387.314 218.264 387.566 217.753 387.704C216.566 388.128 215.394 388.537 214.184 388.954C211.665 389.953 209.02 390.596 206.323 390.864C206.164 390.884 206.003 390.867 205.851 390.817C205.735 390.754 205.629 390.675 205.537 390.581C203.918 389.009 202.393 387.138 202 384.905C201.98 384.831 201.98 384.752 202 384.677C202.038 384.59 202.105 384.518 202.188 384.473C203.817 383.372 205.607 382.531 207.494 381.981C209.224 381.494 210.804 382.154 212.557 382.193Z" fill="#2F3554"/>
<path d="M199.649 387.295C200.778 387.325 201.902 387.438 203.014 387.633C204.054 387.745 205.042 388.146 205.867 388.788C206.334 389.194 206.646 389.75 206.748 390.361C206.796 390.666 206.773 390.979 206.682 391.275C206.591 391.57 206.433 391.841 206.221 392.066C205.823 392.417 205.35 392.67 204.837 392.805C203.65 393.23 202.479 393.639 201.269 394.047C198.752 395.055 196.106 395.701 193.408 395.965C193.246 395.986 193.083 395.969 192.928 395.918C192.815 395.856 192.711 395.776 192.622 395.682C191.002 394.11 189.477 392.239 189.084 390.007C189.065 389.93 189.065 389.848 189.084 389.771C189.128 389.689 189.193 389.621 189.273 389.575C190.902 388.475 192.692 387.635 194.579 387.083C196.316 386.619 197.888 387.295 199.649 387.295Z" fill="#2F3554"/>
<path d="M134.766 292.415C134.766 292.415 142.273 309.237 150.228 311.509C158.183 313.781 167.766 290.206 167.766 290.206L161.383 287.8L150.668 298.57C150.668 298.57 144.026 284.468 141.33 285.112C138.634 285.757 133.752 289.522 134.766 292.415Z" fill="white"/>
<path d="M169.393 278.423C169.476 279.079 169.749 279.696 170.179 280.199C170.681 281.251 171.013 282.376 171.162 283.532C171.339 284.692 171.804 285.789 172.514 286.724C172.881 287.18 173.383 287.507 173.949 287.656C174.515 287.806 175.114 287.771 175.658 287.557C176.012 287.348 176.313 287.059 176.537 286.714C176.76 286.369 176.901 285.977 176.947 285.568C177.029 284.748 176.935 283.92 176.672 283.139C176.387 282.114 175.997 281.121 175.509 280.176C175.075 279.276 174.462 278.473 173.709 277.817C172.616 276.882 169.542 276.08 169.393 278.423Z" fill="#D68369"/>
<path d="M166.201 279.437C166.596 278.723 167.181 278.132 167.891 277.731C168.569 277.468 169.298 277.366 170.022 277.432C171.437 277.432 173.087 277.691 173.764 278.926C173.974 279.42 174.056 279.959 174.003 280.494C173.949 281.028 173.761 281.541 173.457 281.983C172.915 282.903 172.144 283.674 171.586 284.593C170.8 285.898 170.423 287.533 169.228 288.484C168.721 288.874 168.132 289.143 167.506 289.27C165.431 289.75 162.719 288.76 163.206 286.283C163.799 283.844 164.812 281.527 166.201 279.437Z" fill="#EC9C7D"/>
<path d="M93.6698 333.315C93.5911 333.22 93.5047 333.134 93.4182 333.047C94.448 334.203 95.1397 335.036 95.352 335.296C94.8253 334.627 94.2672 333.951 93.6698 333.315Z" fill="#DC9BD5"/>
<path d="M235.007 379.017H238.482V346.882H235.007V379.017Z" fill="#4C506D"/>
<path d="M211.975 382.861H250.564V378.357H211.975V382.861Z" fill="#4C506D"/>
<path d="M219.836 382.861H258.425V378.357H219.836V382.861Z" fill="#2F3554"/>
<path d="M224.222 346.89H245.792C249.031 346.89 251.656 344.265 251.656 341.026C251.656 337.787 249.031 335.162 245.792 335.162H224.222C220.983 335.162 218.358 337.787 218.358 341.026C218.358 344.265 220.983 346.89 224.222 346.89Z" fill="#4C506D"/>
<path d="M231.179 346.89H252.749C255.988 346.89 258.613 344.265 258.613 341.026C258.613 337.787 255.988 335.162 252.749 335.162H231.179C227.94 335.162 225.315 337.787 225.315 341.026C225.315 344.265 227.94 346.89 231.179 346.89Z" fill="#2F3554"/>
<path d="M208.894 291.802V302.972C208.893 303.953 209.085 304.925 209.46 305.832C209.835 306.739 210.385 307.563 211.078 308.257C211.772 308.952 212.595 309.503 213.502 309.878C214.408 310.254 215.38 310.448 216.361 310.448H227.524C228.789 310.451 230.034 310.128 231.14 309.512C232.058 309.007 232.861 308.316 233.498 307.484C234.489 306.189 235.022 304.602 235.015 302.972V291.802C235.015 290.82 234.822 289.849 234.446 288.942C234.07 288.035 233.519 287.212 232.825 286.518C232.131 285.825 231.307 285.275 230.4 284.9C229.493 284.525 228.521 284.333 227.54 284.334H216.377C216.043 284.331 215.71 284.352 215.379 284.397C213.584 284.635 211.937 285.517 210.744 286.88C209.551 288.242 208.893 289.991 208.894 291.802Z" fill="#4C506D"/>
<path d="M212.038 303.035C212.188 304.215 212.619 305.342 213.296 306.321C215.316 309.088 219.246 309.426 222.666 309.512C225.213 309.575 234.095 311.485 233.459 307.217C233.121 304.976 231.776 302.602 231.1 300.441C230.424 298.279 228.994 295.481 228.994 293.295C228.519 291.221 227.883 289.186 227.091 287.211C226.642 286.181 226.06 285.214 225.362 284.334H216.369C216.054 284.316 215.738 284.35 215.434 284.436C215.803 287.447 213.814 289.561 212.714 292.187C211.731 294.545 211.755 297.131 211.786 299.655C211.788 300.786 211.872 301.916 212.038 303.035Z" fill="#2F3554"/>
<path d="M87.2552 318.736V397.377C87.2552 398.884 87.9489 400.116 88.8044 400.116H112.59C113.446 400.116 114.139 398.884 114.139 397.377V318.736C114.131 318.598 114.16 318.461 114.221 318.354C114.281 318.247 114.368 318.178 114.463 318.161H299.011C299.106 318.178 299.193 318.247 299.253 318.354C299.313 318.461 299.343 318.598 299.334 318.736V387.438C299.599 387.644 299.871 387.83 300.149 387.995L300.56 388.187V318.736C300.56 318.543 300.549 318.351 300.525 318.161H324.675C324.77 318.178 324.857 318.247 324.918 318.354C324.978 318.461 325.007 318.598 324.999 318.736V397.377C325.007 397.516 324.978 397.653 324.918 397.762C324.858 397.87 324.771 397.941 324.675 397.96H300.883C300.788 397.941 300.701 397.87 300.641 397.762C300.58 397.653 300.551 397.516 300.56 397.377V395.363C300.161 395.526 299.742 395.557 299.334 395.454V397.377C299.334 398.884 300.028 400.116 300.883 400.116H324.675C325.531 400.116 326.224 398.884 326.224 397.377V318.736C326.224 317.229 325.531 316.005 324.675 316.005H88.8391C87.9489 316.005 87.2552 317.237 87.2552 318.736ZM88.4749 318.736C88.4668 318.597 88.4967 318.459 88.5583 318.352C88.6199 318.244 88.7082 318.176 88.8044 318.161H112.949C112.925 318.351 112.914 318.543 112.914 318.736V397.377C112.922 397.516 112.893 397.653 112.833 397.762C112.773 397.87 112.686 397.941 112.59 397.96H88.8044C88.7077 397.943 88.6194 397.873 88.5579 397.764C88.4965 397.656 88.4667 397.517 88.4749 397.377V318.736Z" fill="white"/>
<path d="M87.208 319.496V397.403C87.208 398.895 87.9016 400.116 88.7571 400.116H112.543C113.399 400.116 114.092 398.895 114.092 397.403V319.496C114.084 319.36 114.113 319.225 114.174 319.118C114.234 319.012 114.321 318.944 114.416 318.927H298.963C299.059 318.944 299.145 319.012 299.206 319.118C299.266 319.225 299.295 319.36 299.287 319.496V395.498C299.552 395.702 300.923 402.705 300.513 395.407V388.298V319.496C300.513 319.305 300.501 319.115 300.478 318.927H324.628C324.723 318.944 324.81 319.012 324.87 319.118C324.931 319.225 324.96 319.36 324.952 319.496V397.403C324.96 397.54 324.931 397.676 324.871 397.784C324.81 397.891 324.724 397.962 324.628 397.98H300.836C300.741 397.962 300.654 397.891 300.593 397.784C300.533 397.676 300.504 397.54 300.513 397.403V395.407C300.114 395.569 299.695 395.6 299.287 395.498V397.403C299.287 398.895 299.981 400.116 300.836 400.116H324.628C325.483 400.116 326.177 398.895 326.177 397.403V319.496C326.177 318.003 325.483 316.791 324.628 316.791H88.7918C87.9016 316.791 87.208 318.012 87.208 319.496ZM88.4277 319.496C88.4196 319.359 88.4495 319.222 88.5111 319.116C88.5727 319.009 88.661 318.942 88.7571 318.927H112.901C112.878 319.115 112.866 319.305 112.867 319.496V397.403C112.875 397.54 112.846 397.676 112.786 397.784C112.726 397.891 112.639 397.962 112.543 397.98H88.7571C88.6605 397.963 88.5722 397.894 88.5107 397.786C88.4492 397.679 88.4195 397.541 88.4277 397.403V319.496Z" fill="url(#paint9_linear)"/>
<path d="M2.1067 395.596H34.454C35.6174 395.596 36.5607 394.433 36.5607 393.01V318.749C36.5495 318.619 36.5892 318.49 36.6713 318.389C36.7534 318.287 36.8716 318.222 37.0009 318.206H322.875C323.006 318.22 323.126 318.285 323.21 318.386C323.294 318.487 323.335 318.618 323.324 318.749V393.01C323.335 393.141 323.294 393.271 323.21 393.372C323.126 393.474 323.006 393.538 322.875 393.552C322.642 393.603 322.433 393.732 322.283 393.917C322.133 394.103 322.051 394.335 322.051 394.574C322.051 394.813 322.133 395.045 322.283 395.231C322.433 395.417 322.642 395.546 322.875 395.596C324.039 395.596 324.982 394.433 324.982 393.01V318.749C324.982 317.326 324.039 316.162 322.875 316.162H37.0009C35.8375 316.162 34.8942 317.326 34.8942 318.749V393.01C34.9053 393.14 34.8657 393.269 34.7836 393.37C34.7015 393.471 34.5833 393.536 34.454 393.552H2.1067C1.97595 393.538 1.85584 393.474 1.77209 393.372C1.68835 393.271 1.64762 393.141 1.65863 393.01V318.749C1.64762 318.618 1.68835 318.487 1.77209 318.386C1.85584 318.285 1.97595 318.22 2.1067 318.206C2.34024 318.156 2.54945 318.027 2.6995 317.841C2.84955 317.655 2.93139 317.423 2.93139 317.184C2.93139 316.945 2.84955 316.714 2.6995 316.528C2.54945 316.342 2.34024 316.213 2.1067 316.162C0.943299 316.162 0 317.326 0 318.749V393.01C0 394.433 0.943299 395.596 2.1067 395.596Z" fill="white"/>
<path d="M88.7571 400.116H112.543C113.399 400.116 114.092 398.896 114.092 397.403V319.504C114.084 319.368 114.113 319.233 114.174 319.126C114.234 319.02 114.321 318.952 114.416 318.935H324.628C324.724 318.95 324.812 319.017 324.874 319.124C324.936 319.23 324.966 319.367 324.957 319.504V397.403C324.966 397.54 324.936 397.677 324.874 397.783C324.812 397.89 324.724 397.957 324.628 397.972C324.456 398.025 324.302 398.16 324.192 398.355C324.082 398.55 324.022 398.793 324.022 399.044C324.022 399.295 324.082 399.538 324.192 399.733C324.302 399.928 324.456 400.063 324.628 400.116C325.483 400.116 326.177 398.896 326.177 397.403V319.504C326.177 318.012 325.483 316.791 324.628 316.791H114.416C113.56 316.791 112.867 318.012 112.867 319.504V397.403C112.875 397.539 112.846 397.675 112.785 397.781C112.725 397.887 112.638 397.955 112.543 397.972H88.7571C88.661 397.957 88.5727 397.89 88.5111 397.783C88.4495 397.677 88.4196 397.54 88.4277 397.403V319.504C88.4196 319.367 88.4495 319.23 88.5111 319.124C88.5727 319.017 88.661 318.95 88.7571 318.935C88.9289 318.882 89.0827 318.747 89.193 318.552C89.3034 318.357 89.3635 318.114 89.3635 317.863C89.3635 317.613 89.3034 317.369 89.193 317.174C89.0827 316.979 88.9289 316.844 88.7571 316.791C87.9016 316.791 87.208 318.012 87.208 319.504V397.403C87.208 398.896 87.9016 400.116 88.7571 400.116Z" fill="url(#paint10_linear)"/>
<path d="M243.818 280.03C245.663 280.861 247.351 282.003 248.806 283.408C249.533 284.11 250.105 284.956 250.485 285.891C250.866 286.827 251.048 287.832 251.019 288.841C250.823 291.289 249.068 293.306 247.222 294.903C245.114 296.762 242.548 298.7 242.378 301.449C240.873 300.323 239.498 299.014 237.94 297.953C235.217 296.094 232.009 295.099 229.011 293.725C226.013 292.35 223.041 290.412 221.614 287.44C220.843 285.561 220.4 283.564 220.305 281.536C219.998 279.367 219.941 277.171 220.135 274.99C220.34 272.795 221.302 270.739 222.858 269.177C225.223 267.363 228.013 266.182 230.962 265.747C232.621 265.832 234.221 266.392 235.572 267.359C236.923 268.327 237.967 269.662 238.581 271.206C239.197 272.843 238.909 274.702 239.511 276.338C240.27 278.25 242.116 279.166 243.818 280.03Z" fill="#F16719"/>
<path d="M311.676 379.02C312.267 379.009 312.855 379.097 313.417 379.282C313.697 379.379 313.944 379.554 314.13 379.786C314.315 380.017 314.431 380.297 314.464 380.592C314.441 380.88 314.346 381.157 314.188 381.4C314.03 381.642 313.815 381.841 313.561 381.979C313.076 382.294 312.514 382.477 312.029 382.804C311.62 383.143 311.182 383.446 310.72 383.707C309.891 383.956 309.002 383.924 308.193 383.616C304.421 382.697 300.516 382.453 296.659 382.896C296.285 382.942 295.907 382.942 295.533 382.896C294.984 382.737 294.484 382.441 294.081 382.036C293.677 381.63 293.384 381.129 293.229 380.578C292.456 378.234 292.228 375.745 292.561 373.299C292.566 373.026 292.633 372.757 292.757 372.514C292.913 372.324 293.11 372.171 293.333 372.069C296.986 370.262 298.989 373.875 301.673 375.643C304.659 377.615 308.105 378.779 311.676 379.02Z" fill="#FCA89E"/>
<path d="M306.798 375.946C306.247 375.908 305.695 375.869 305.175 375.833C304.979 375.786 304.776 375.772 304.575 375.791C304.183 375.924 303.842 376.174 303.595 376.506C303.012 377.151 302.459 378.059 301.624 378.343C300.861 378.595 300.066 378.731 299.263 378.75C297.453 378.776 295.65 378.523 293.917 378C293.666 377.919 293.399 377.9 293.138 377.946C292.925 378.016 292.739 378.151 292.607 378.332C292.474 378.513 292.402 378.731 292.399 378.955C292.4 379.4 292.491 379.839 292.668 380.247C292.827 381.023 293.244 381.722 293.851 382.23C294.458 382.738 295.22 383.025 296.011 383.044L302.633 383.507C304.678 383.65 306.723 383.793 308.773 383.855C310.157 383.928 311.545 383.827 312.904 383.556C313.842 383.392 314.703 382.931 315.361 382.242C315.675 381.887 315.864 381.439 315.897 380.966C315.93 380.493 315.806 380.022 315.544 379.627C315.161 379.21 314.677 378.901 314.139 378.729L309.942 376.934C309.147 376.567 308.323 376.269 307.477 376.043L306.798 375.946Z" fill="#189FA3"/>
<path d="M223.342 325.29C223.342 325.29 222.425 338.958 234.641 343.082C246.856 347.206 268.746 343.842 268.746 343.842C268.746 343.842 277.557 360.718 286.564 368.717L292.325 374.412C293.538 374.705 294.814 374.596 295.96 374.1C297.105 373.604 298.058 372.748 298.675 371.663C298.675 371.663 281.655 337.741 279.364 335.201C276.764 332.074 273.291 329.794 269.387 328.655L245.01 320.983L223.342 325.29Z" fill="#189FA3"/>
<path d="M240.899 262.565C241.344 263.324 242.274 263.77 242.575 264.594C242.876 265.419 242.234 266.65 241.881 267.658C241.37 269.059 241.527 270.63 241.043 272.044C240.959 272.349 240.785 272.623 240.545 272.829C240.321 272.983 240.067 273.085 239.799 273.131C238.753 273.342 237.682 273.404 236.618 273.314C236.41 273.273 236.194 273.3 236.002 273.392C235.846 273.53 235.748 273.722 235.727 273.929C235.116 276.597 235.161 279.374 235.858 282.02C236.081 282.897 236.33 283.958 235.688 284.639C235.455 284.849 235.171 284.994 234.863 285.058C232.847 285.542 230.936 284.049 229.548 282.439C228.333 281.04 227.287 279.501 226.432 277.857C226.165 277.4 225.983 276.899 225.895 276.377C225.858 275.703 225.951 275.027 226.17 274.387C226.748 272.186 227.099 269.931 227.218 267.658C227.362 264.752 227.152 261.727 228.278 259.03C228.598 258.103 229.215 257.307 230.032 256.765C231.01 256.3 232.1 256.123 233.174 256.255C235.282 256.333 237.613 256.621 239.053 258.179C239.459 258.624 240.336 261.623 240.899 262.565Z" fill="#FCA89E"/>
<path d="M237.403 284.599C234.772 281.064 226.065 276.561 226.065 276.561C217.634 275.579 214.361 296.958 216.299 303.099C218.236 309.239 222.357 330.872 223.172 331.299C223.986 331.727 230.668 328.582 232.24 327.796C233.813 327.01 244.425 322.294 244.818 321.115C245.211 319.936 243.245 314.826 243.245 314.826C243.245 314.826 240.951 304.12 242.64 297.43C244.329 290.74 240.035 288.134 237.403 284.599Z" fill="#4C506D"/>
<path d="M238.097 257.878C237.924 259.313 237.241 260.637 236.173 261.609C235.138 262.565 233.868 263.233 232.795 264.149C232.229 264.573 231.778 265.132 231.483 265.774C231.188 266.417 231.059 267.123 231.106 267.828C230.695 267.665 230.24 267.65 229.819 267.786C229.399 267.922 229.039 268.201 228.802 268.575C228.692 268.838 228.657 269.126 228.701 269.408C228.744 269.69 228.866 269.954 229.051 270.172C229.24 270.384 229.475 270.55 229.738 270.659C230.001 270.768 230.285 270.816 230.569 270.8C229.469 271.25 228.526 272.015 227.859 273C227.113 274.099 226.746 275.409 226.066 276.561C225.225 277.725 224.172 278.72 222.963 279.493C222.42 279.86 221.972 280.349 221.653 280.921C221.405 281.811 221.103 282.685 220.75 283.539C219.977 284.629 219.146 285.678 218.263 286.681C217.067 288.432 216.382 290.481 216.286 292.599C216.345 291.972 216.345 291.34 216.286 290.713C216.067 290.347 215.858 289.967 215.657 289.574C215.322 288.889 215.063 288.169 214.885 287.427C214.634 285.728 214.585 284.006 214.741 282.295C214.741 278.629 211.284 271.73 214.06 268.588C215.165 267.662 216.343 266.826 217.582 266.087C220.03 264.058 220.37 260.484 221.915 257.708C222.6 256.486 223.522 255.412 224.625 254.549C225.729 253.686 226.993 253.051 228.344 252.681C231.957 251.646 238.582 252.785 238.097 257.878Z" fill="#F16719"/>
<path d="M229.417 288.03C229.417 288.03 234.916 302.902 235.963 303.989C237.01 305.076 225.371 311.648 225.371 311.648C225.371 311.648 217.765 297.181 218.118 290.923C218.472 284.665 225.136 282.125 229.417 288.03Z" fill="#2F3554"/>
<path d="M225.424 309.632C225.424 309.632 225.829 314.423 231.708 314.332L257.827 313.965C259.607 313.049 262.043 312.905 263.365 311.347C264.006 310.64 264.334 309.697 264.936 308.964C265.768 308.047 266.892 307.445 268.117 307.262C269.331 307.088 270.562 307.057 271.783 307.17C272.023 306.894 272.155 306.541 272.155 306.175C272.155 305.81 272.023 305.457 271.783 305.18C271.271 304.65 270.608 304.289 269.885 304.146C266.878 303.393 263.695 303.864 261.034 305.455C260.264 306.003 259.423 306.443 258.534 306.765C257.879 306.898 257.209 306.933 256.544 306.869C249.016 306.516 241.579 304.918 234.051 304.578C232.287 304.402 230.504 304.589 228.815 305.128C227.931 305.554 227.163 306.185 226.573 306.969C225.983 307.752 225.589 308.665 225.424 309.632Z" fill="#FCA89E"/>
<path d="M265.191 304.502C267.376 304.156 269.844 303.873 271.621 305.202C272.465 305.924 273.155 306.809 273.649 307.804C273.907 308.031 274.087 308.334 274.164 308.669C274.242 309.004 274.213 309.355 274.081 309.673C273.95 309.99 273.722 310.259 273.43 310.441C273.139 310.623 272.797 310.71 272.454 310.689C270.434 311.176 268.256 311.64 266.315 310.877C264.884 310.319 263.729 309.132 262.235 308.778C261.98 308.741 261.735 308.656 261.512 308.527C261.306 308.357 261.159 308.126 261.095 307.867C260.199 304.887 263.202 304.785 265.191 304.502Z" fill="#FCA89E"/>
<path d="M284.01 308.383L292.779 286.134H315.958L304.299 312.861L268.793 311.53L269.933 309.381L284.01 308.383Z" fill="white"/>
<path d="M169.242 307.597L178.011 285.348H201.19L189.531 312.075L154.025 310.744L155.165 308.595L169.242 307.597Z" fill="#189FA3"/>
<path d="M261.561 333.173L261.302 332.906C262.332 334.061 263.023 334.895 263.236 335.146C262.677 334.47 262.111 333.841 261.561 333.173Z" fill="#DC9BD5"/>
<path d="M324.856 316.139L33.6679 316.139V312.263L327.199 312.263V313.796C327.195 314.416 326.947 315.01 326.508 315.448C326.07 315.886 325.476 316.135 324.856 316.139Z" fill="white"/>
<path d="M112.363 316.791H87.3918C86.9261 316.791 86.4794 316.509 86.1501 316.008C85.8208 315.506 85.6357 314.825 85.6357 314.116V311.289H112.363V316.773V316.791Z" fill="white"/>
<path d="M108.432 310.503H328.886C329.014 310.521 329.13 310.598 329.211 310.717C329.292 310.835 329.331 310.987 329.319 311.138V313.011C329.331 313.163 329.292 313.314 329.211 313.433C329.13 313.551 329.014 313.628 328.886 313.647H108.432V310.503Z" fill="#189FA3"/>
<path d="M84.5816 310.503H113.495C113.624 310.521 113.742 310.598 113.823 310.717C113.905 310.835 113.944 310.987 113.933 311.138V313.011C113.944 313.163 113.905 313.314 113.823 313.433C113.742 313.551 113.624 313.628 113.495 313.647H84.5816C84.4307 313.626 84.2926 313.538 84.1967 313.4C84.1007 313.262 84.0544 313.086 84.0676 312.909V311.261C84.0586 311.172 84.0648 311.081 84.0858 310.995C84.1068 310.908 84.1422 310.828 84.19 310.757C84.2377 310.687 84.2969 310.628 84.3641 310.584C84.4313 310.54 84.5052 310.513 84.5816 310.503Z" fill="url(#paint11_linear)"/>
<path d="M207.526 31.4359L220.889 24.3686V26.4117L209.639 32.1941V32.2583L220.889 38.0407V40.0902L207.526 33.0229V31.4359Z" fill="#189FA3"/>
<path d="M222.461 40.8763L230.048 20.4381H231.894L224.284 40.8763H222.461Z" fill="#189FA3"/>
<path d="M246.83 33.0688L234.253 40.0902V38.0221L244.94 32.2773V32.1815L234.253 26.4367V24.3686L246.83 31.39V33.0688Z" fill="#189FA3"/>
<path d="M436.455 323.296L429.818 321.052C429.577 320.971 429.315 321.1 429.234 321.341C429.152 321.582 429.282 321.844 429.523 321.925L436.097 324.147L433.002 325.656C432.874 325.569 432.729 325.503 432.573 325.462L423.291 323.036C422.996 321.518 421.127 320.881 419.979 321.961C419.582 322.335 419.354 322.862 419.354 323.408V323.418C419.357 324.06 419.889 324.583 420.539 324.583H422.142C422.555 324.583 422.969 324.367 423.184 323.96L431.84 326.222C429.105 327.556 422.965 330.549 422.182 330.931C421.63 331.2 421.014 331.183 420.498 330.931L406.584 324.147L420.725 319.368C421.122 319.234 421.559 319.234 421.955 319.368L427.477 321.234C427.718 321.315 427.979 321.186 428.06 320.945C428.142 320.704 428.012 320.442 427.771 320.361L422.25 318.495C421.663 318.297 421.017 318.297 420.43 318.495L406.225 323.296C405.471 323.551 405.402 324.596 406.12 324.946L413.41 328.5C413.009 330.407 412.396 332.459 411.731 334.281C411.458 335.026 411.693 335.855 412.315 336.344C414.419 337.997 416.904 339.275 419.452 340.096C420.649 340.482 421.984 340.496 423.228 340.096C425.777 339.274 428.263 337.997 430.365 336.344C430.989 335.853 431.221 335.024 430.949 334.281C430.298 332.5 429.677 330.434 429.27 328.5L432.699 326.828V333.761C432.113 333.806 431.65 334.296 431.65 334.893V336.236C431.65 336.435 431.737 336.614 431.873 336.739L431.702 339.326C431.669 339.832 432.071 340.261 432.578 340.261H433.743C434.249 340.261 434.651 339.832 434.618 339.326L434.447 336.739C434.584 336.614 434.67 336.435 434.67 336.236V334.893C434.67 334.296 434.207 333.806 433.621 333.761V326.818C433.621 326.677 433.598 326.54 433.559 326.409L436.561 324.946C437.277 324.597 437.211 323.551 436.455 323.296ZM422.142 323.661H420.539C420.397 323.661 420.276 323.548 420.275 323.416V323.408C420.275 323.111 420.394 322.836 420.61 322.632C421.274 322.008 422.361 322.457 422.404 323.355C422.414 323.57 422.276 323.661 422.142 323.661ZM429.565 333.097C427.077 335.045 423.545 336.438 422.328 336.67C422.078 336.718 421.914 336.959 421.962 337.209C422.01 337.459 422.252 337.623 422.501 337.575C423.773 337.332 427.26 335.978 429.877 334.019C429.941 334.203 430.016 334.412 430.084 334.598C430.219 334.967 430.103 335.378 429.796 335.62C427.315 337.569 424.701 338.653 422.945 339.219C421.897 339.557 420.757 339.549 419.735 339.219C417.979 338.653 415.365 337.569 412.884 335.62C412.577 335.378 412.461 334.967 412.596 334.598C412.599 334.59 412.601 334.583 412.604 334.575C412.671 334.392 412.745 334.184 412.803 334.019C415.358 335.931 418.835 337.319 420.179 337.575C420.429 337.623 420.67 337.459 420.718 337.209C420.765 336.959 420.601 336.718 420.351 336.67C419.203 336.451 415.659 335.088 413.115 333.097C413.489 331.953 413.922 330.483 414.263 328.916L420.094 331.759C420.871 332.138 421.779 332.152 422.586 331.759L428.417 328.916C428.758 330.483 429.191 331.953 429.565 333.097ZM432.625 339.34L432.785 336.918H433.535L433.695 339.34H432.625ZM433.749 334.893V335.996H432.571V334.893C432.571 334.776 432.67 334.678 432.787 334.678H433.533C433.65 334.678 433.749 334.776 433.749 334.893Z" fill="white"/>
<rect x="44.8066" y="396.186" width="668.17" height="9.43299" fill="#2F3554"/>
<defs>
<linearGradient id="paint0_linear" x1="4632.51" y1="-5186.53" x2="3537.35" y2="15205.6" gradientUnits="userSpaceOnUse">
<stop offset="0.02" stop-color="#189FA3"/>
<stop offset="0.32" stop-color="white" stop-opacity="0.39"/>
<stop offset="0.68" stop-color="white" stop-opacity="0.68"/>
<stop offset="1" stop-color="white"/>
</linearGradient>
<linearGradient id="paint1_linear" x1="4561.31" y1="-5264.98" x2="3466.14" y2="15127.2" gradientUnits="userSpaceOnUse">
<stop offset="0.02" stop-color="#189FA3"/>
<stop offset="0.32" stop-color="white" stop-opacity="0.39"/>
<stop offset="0.68" stop-color="white" stop-opacity="0.68"/>
<stop offset="1" stop-color="white"/>
</linearGradient>
<linearGradient id="paint2_linear" x1="4426.17" y1="-5271.03" x2="3331" y2="15121.1" gradientUnits="userSpaceOnUse">
<stop offset="0.02" stop-color="#189FA3"/>
<stop offset="0.32" stop-color="white" stop-opacity="0.39"/>
<stop offset="0.68" stop-color="white" stop-opacity="0.68"/>
<stop offset="1" stop-color="white"/>
</linearGradient>
<linearGradient id="paint3_linear" x1="4402.21" y1="-5187.71" x2="3307.05" y2="15204.5" gradientUnits="userSpaceOnUse">
<stop offset="0.02" stop-color="#189FA3"/>
<stop offset="0.32" stop-color="white" stop-opacity="0.39"/>
<stop offset="0.68" stop-color="white" stop-opacity="0.68"/>
<stop offset="1" stop-color="white"/>
</linearGradient>
<linearGradient id="paint4_linear" x1="3145.26" y1="3267.63" x2="3722.55" y2="4140.66" gradientUnits="userSpaceOnUse">
<stop offset="0.02" stop-color="#127173"/>
<stop offset="0.32" stop-color="white" stop-opacity="0.39"/>
<stop offset="0.68" stop-color="white" stop-opacity="0.68"/>
<stop offset="1" stop-color="white"/>
</linearGradient>
<linearGradient id="paint5_linear" x1="-7945.28" y1="9340.73" x2="-7727.43" y2="9560.16" gradientUnits="userSpaceOnUse">
<stop stop-color="#189FA3"/>
<stop offset="0.95" stop-color="#010101"/>
</linearGradient>
<linearGradient id="paint6_linear" x1="816.147" y1="1674.81" x2="854.634" y2="1717.97" gradientUnits="userSpaceOnUse">
<stop stop-color="#22BDC1"/>
<stop offset="0.07" stop-color="white" stop-opacity="0.22"/>
<stop offset="0.16" stop-color="white" stop-opacity="0.45"/>
<stop offset="0.25" stop-color="white" stop-opacity="0.65"/>
<stop offset="0.33" stop-color="white" stop-opacity="0.8"/>
<stop offset="0.4" stop-color="white" stop-opacity="0.91"/>
<stop offset="0.46" stop-color="white" stop-opacity="0.98"/>
<stop offset="0.51" stop-color="white"/>
</linearGradient>
<linearGradient id="paint7_linear" x1="369.119" y1="2223.14" x2="208.39" y2="2231.36" gradientUnits="userSpaceOnUse">
<stop stop-color="#010101" stop-opacity="0"/>
<stop offset="0.95" stop-color="#010101"/>
</linearGradient>
<linearGradient id="paint8_linear" x1="427.067" y1="322.655" x2="416.838" y2="460.458" gradientUnits="userSpaceOnUse">
<stop offset="0.01"/>
<stop offset="0.08" stop-opacity="0.69"/>
<stop offset="0.21" stop-opacity="0.32"/>
<stop offset="1" stop-opacity="0"/>
</linearGradient>
<linearGradient id="paint9_linear" x1="63132" y1="48725.1" x2="62497.6" y2="-11168" gradientUnits="userSpaceOnUse">
<stop offset="0.01"/>
<stop offset="0.08" stop-opacity="0.69"/>
<stop offset="0.21" stop-opacity="0.32"/>
<stop offset="1" stop-opacity="0"/>
</linearGradient>
<linearGradient id="paint10_linear" x1="62979.1" y1="21245.5" x2="62431.4" y2="84513.2" gradientUnits="userSpaceOnUse">
<stop offset="0.01"/>
<stop offset="0.08" stop-opacity="0.69"/>
<stop offset="0.21" stop-opacity="0.32"/>
<stop offset="1" stop-opacity="0"/>
</linearGradient>
<linearGradient id="paint11_linear" x1="2553.21" y1="1374.32" x2="2543.29" y2="1612.16" gradientUnits="userSpaceOnUse">
<stop offset="0.01"/>
<stop offset="0.08" stop-opacity="0.69"/>
<stop offset="0.21" stop-opacity="0.32"/>
<stop offset="1" stop-opacity="0"/>
</linearGradient>
</defs>
</svg>
